…
### Tidy data

From the data set *data2*, creates a second, independent tidy data set
with the average of each variable for each activity and each subject.
After I changed the variable’s names erasing “mean()”.

``` r
data3 <- data2 %>% select(c(2:3) | contains("mean()")) %>%
    group_by(activity, subject) %>% summarise_all(mean)
names(data3) <- sub("-mean\\(\\)","",names(data3))
data3
```

    ## # A tibble: 180 x 35
    ## # Groups:   activity [6]
    ##    activity subject `tBodyAcc-X` `tBodyAcc-Y` `tBodyAcc-Z` `tGravityAcc-X`
    ##    <fct>      <int>        <dbl>        <dbl>        <dbl>           <dbl>
    ##  1 WALKING        1        0.277      -0.0174       -0.111           0.935
    ##  2 WALKING        2        0.276      -0.0186       -0.106           0.913
    ##  3 WALKING        3        0.276      -0.0172       -0.113           0.937
    ##  4 WALKING        4        0.279      -0.0148       -0.111           0.964
    ##  5 WALKING        5        0.278      -0.0173       -0.108           0.973
    ##  6 WALKING        6        0.284      -0.0169       -0.110           0.958
    ##  7 WALKING        7        0.276      -0.0187       -0.111           0.933
    ##  8 WALKING        8        0.275      -0.0187       -0.107           0.914
    ##  9 WALKING        9        0.279      -0.0181       -0.111           0.952
    ## 10 WALKING       10        0.279      -0.0170       -0.109           0.963
    ## # ... with 170 more rows, and 29 more variables: `tGravityAcc-Y` <dbl>,
    ## #   `tGravityAcc-Z` <dbl>, `tBodyAccJerk-X` <dbl>, `tBodyAccJerk-Y` <dbl>,
    ## #   `tBodyAccJerk-Z` <dbl>, `tBodyGyro-X` <dbl>, `tBodyGyro-Y` <dbl>,
    ## #   `tBodyGyro-Z` <dbl>, `tBodyGyroJerk-X` <dbl>, `tBodyGyroJerk-Y` <dbl>,
    ## #   `tBodyGyroJerk-Z` <dbl>, tBodyAccMag <dbl>, tGravityAccMag <dbl>,
    ## #   tBodyAccJerkMag <dbl>, tBodyGyroMag <dbl>, tBodyGyroJerkMag <dbl>,
    ## #   `fBodyAcc-X` <dbl>, `fBodyAcc-Y` <dbl>, `fBodyAcc-Z` <dbl>,
    ## #   `fBodyAccJerk-X` <dbl>, `fBodyAccJerk-Y` <dbl>, `fBodyAccJerk-Z` <dbl>,
    ## #   `fBodyGyro-X` <dbl>, `fBodyGyro-Y` <dbl>, `fBodyGyro-Z` <dbl>,
…
